…
#### Section 12.6.1 (\#3, \#4)

3.  I claimed that `iso2` and `iso3` were redundant with country.
    Confirm this claim.

``` r
who %>% 
  count(country, iso2, iso3)
```

    ## # A tibble: 219 × 4
    ##    country             iso2  iso3      n
    ##    <chr>               <chr> <chr> <int>
    ##  1 Afghanistan         AF    AFG      34
    ##  2 Albania             AL    ALB      34
    ##  3 Algeria             DZ    DZA      34
    ##  4 American Samoa      AS    ASM      34
    ##  5 Andorra             AD    AND      34
    ##  6 Angola              AO    AGO      34
    ##  7 Anguilla            AI    AIA      34
    ##  8 Antigua and Barbuda AG    ATG      34
    ##  9 Argentina           AR    ARG      34
    ## 10 Armenia             AM    ARM      34
    ## # … with 209 more rows
…
``` r
ggplot2::diamonds %>% 
  # count(x, y, z, price) %>%
  count(carat, cut, color, clarity, depth, table, price, x, y, z) %>% 
  filter(n > 1)
```

    ## # A tibble: 143 × 11
    ##    carat cut       color clarity depth table price     x     y     z     n
    ##    <dbl> <ord>     <ord> <ord>   <dbl> <dbl> <int> <dbl> <dbl> <dbl> <int>
    ##  1  0.3  Good      J     VS1      63.4    57   394  4.23  4.26  2.69     2
    ##  2  0.3  Very Good G     VS2      63      55   526  4.29  4.31  2.71     2
    ##  3  0.3  Very Good J     VS1      63.4    57   506  4.26  4.23  2.69     2
    ##  4  0.3  Premium   D     SI1      62.2    58   709  4.31  4.28  2.67     2
    ##  5  0.3  Ideal     G     VS2      63      55   675  4.31  4.29  2.71     2
    ##  6  0.3  Ideal     G     IF       62.1    55   863  4.32  4.35  2.69     2
    ##  7  0.3  Ideal     H     SI1      62.2    57   450  4.26  4.29  2.66     2
    ##  8  0.3  Ideal     H     SI1      62.2    57   450  4.27  4.28  2.66     2
    ##  9  0.31 Good      D     SI1      63.5    56   571  4.29  4.31  2.73     2
    ## 10  0.31 Very Good D     SI1      63.5    56   732  4.31  4.29  2.73     2
    ## # … with 133 more rows
…
2.  Add the location of the origin and destination (i.e. the `lat` and
    `lon`) to flights.

> Live solution

``` r
airport_coord <- airports %>% select(faa, lat, lon)

flights %>% 
  left_join(airport_coord , by = c("origin" = "faa")) %>% 
  left_join(airport_coord, by = c("dest" = "faa"), 
            suffix = c("_origin", "_dest"))
```

    ## # A tibble: 336,776 × 23
    ##     year month   day dep_time sched_dep_time dep_delay arr_time sched_arr_time
    ##    <int> <int> <int>    <int>          <int>     <dbl>    <int>          <int>
    ##  1  2013     1     1      517            515         2      830            819
    ##  2  2013     1     1      533            529         4      850            830
    ##  3  2013     1     1      542            540         2      923            850
    ##  4  2013     1     1      544            545        -1     1004           1022
    ##  5  2013     1     1      554            600        -6      812            837
    ##  6  2013     1     1      554            558        -4      740            728
    ##  7  2013     1     1      555            600        -5      913            854
    ##  8  2013     1     1      557            600        -3      709            723
    ##  9  2013     1     1      557            600        -3      838            846
    ## 10  2013     1     1      558            600        -2      753            745
    ## # … with 336,766 more rows, and 15 more variables: arr_delay <dbl>,
    ## #   carrier <chr>, flight <int>, tailnum <chr>, origin <chr>, dest <chr>,
    ## #   air_time <dbl>, distance <dbl>, hour <dbl>, minute <dbl>, time_hour <dttm>,
    ## #   lat_origin <dbl>, lon_origin <dbl>, lat_dest <dbl>, lon_dest <dbl>
…
> Sam’s Solution:

``` r
gr_100 <- flights %>% 
  filter(!is.na(tailnum)) %>% 
  count(tailnum) %>% 
  filter(n >= 100)

flights %>% 
  semi_join(gr_100, by = "tailnum")
```

    ## # A tibble: 228,390 × 19
    ##     year month   day dep_time sched_dep_time dep_delay arr_time sched_arr_time
    ##    <int> <int> <int>    <int>          <int>     <dbl>    <int>          <int>
    ##  1  2013     1     1      517            515         2      830            819
    ##  2  2013     1     1      533            529         4      850            830
    ##  3  2013     1     1      544            545        -1     1004           1022
    ##  4  2013     1     1      554            558        -4      740            728
    ##  5  2013     1     1      555            600        -5      913            854
    ##  6  2013     1     1      557            600        -3      709            723
    ##  7  2013     1     1      557            600        -3      838            846
    ##  8  2013     1     1      558            600        -2      849            851
    ##  9  2013     1     1      558            600        -2      853            856
    ## 10  2013     1     1      558            600        -2      923            937
    ## # … with 228,380 more rows, and 11 more variables: arr_delay <dbl>,
    ## #   carrier <chr>, flight <int>, tailnum <chr>, origin <chr>, dest <chr>,
    ## #   air_time <dbl>, distance <dbl>, hour <dbl>, minute <dbl>, time_hour <dttm>

3.  Combine fueleconomy::vehicles and fueleconomy::common to find only
    the records for the most common models.

> Sam’s Solution:

``` r
fueleconomy::vehicles %>% 
  semi_join(fueleconomy::common, by = c("model", "make"))
```

    ## # A tibble: 14,531 × 12
    ##       id make  model   year class   trans  drive     cyl displ fuel    hwy   cty
    ##    <dbl> <chr> <chr>  <dbl> <chr>   <chr>  <chr>   <dbl> <dbl> <chr> <dbl> <dbl>
    ##  1  1833 Acura Integ…  1986 Subcom… Autom… Front-…     4   1.6 Regu…    28    22
    ##  2  1834 Acura Integ…  1986 Subcom… Manua… Front-…     4   1.6 Regu…    28    23
    ##  3  3037 Acura Integ…  1987 Subcom… Autom… Front-…     4   1.6 Regu…    28    22
    ##  4  3038 Acura Integ…  1987 Subcom… Manua… Front-…     4   1.6 Regu…    28    23
    ##  5  4183 Acura Integ…  1988 Subcom… Autom… Front-…     4   1.6 Regu…    27    22
    ##  6  4184 Acura Integ…  1988 Subcom… Manua… Front-…     4   1.6 Regu…    28    23
    ##  7  5303 Acura Integ…  1989 Subcom… Autom… Front-…     4   1.6 Regu…    27    22
    ##  8  5304 Acura Integ…  1989 Subcom… Manua… Front-…     4   1.6 Regu…    28    23
    ##  9  6442 Acura Integ…  1990 Subcom… Autom… Front-…     4   1.8 Regu…    24    20
    ## 10  6443 Acura Integ…  1990 Subcom… Manua… Front-…     4   1.8 Regu…    26    21
    ## # … with 14,521 more rows
…
