…
``` r
tibble(word = words) %>% 
  mutate(length = str_length(word)) %>% 
  filter(length >= 2) %>% 
  tidyr::extract(
    word, c("first", "mid", "last"),
    "^([a-z]{1})([a-z]*)([a-z])$", 
    remove = FALSE
  ) %>% 
  mutate(new_word = str_c(last, mid, first)) %>% 
  filter(new_word %in% words)
```

    ## # A tibble: 44 × 6
    ##    word    first mid   last  length new_word
    ##    <chr>   <chr> <chr> <chr>  <int> <chr>   
    ##  1 america a     meric a          7 america 
    ##  2 area    a     re    a          4 area    
    ##  3 dad     d     a     d          3 dad     
    ##  4 dead    d     ea    d          4 dead    
    ##  5 deal    d     ea    l          4 lead    
    ##  6 dear    d     ea    r          4 read    
    ##  7 depend  d     epen  d          6 depend  
    ##  8 dog     d     o     g          3 god     
    ##  9 educate e     ducat e          7 educate 
    ## 10 else    e     ls    e          4 else    
    ## # … with 34 more rows
…
flights_dt %>% 
  mutate(duration = as.numeric(arr_time - dep_time), 
         difference = duration - air_time) %>% 
  select(origin, dest, duration, air_time, difference)
```

    ## # A tibble: 328,063 × 5
    ##    origin dest  duration air_time difference
    ##    <chr>  <chr>    <dbl>    <dbl>      <dbl>
    ##  1 EWR    IAH        193      227        -34
    ##  2 LGA    IAH        197      227        -30
    ##  3 JFK    MIA        221      160         61
    ##  4 JFK    BQN        260      183         77
    ##  5 LGA    ATL        138      116         22
    ##  6 EWR    ORD        106      150        -44
    ##  7 EWR    FLL        198      158         40
    ##  8 LGA    IAD         72       53         19
    ##  9 JFK    MCO        161      140         21
    ## 10 LGA    ORD        115      138        -23
    ## # … with 328,053 more rows
…
