…
    ## [1] NA

#### Section 5.3.1 \# 1, 3, 4

1.  How could you use `arrange()` to sort all missing values to the
    start? (Hint: use `is.na()`).

> Live Solution:

``` r
flights %>% 
  arrange(!is.na(dep_time))
```

    ## # A tibble: 336,776 × 19
    ##     year month   day dep_time sched_dep_time dep_delay arr_time sched_arr_time
    ##    <int> <int> <int>    <int>          <int>     <dbl>    <int>          <int>
    ##  1  2013     1     1       NA           1630        NA       NA           1815
    ##  2  2013     1     1       NA           1935        NA       NA           2240
    ##  3  2013     1     1       NA           1500        NA       NA           1825
    ##  4  2013     1     1       NA            600        NA       NA            901
    ##  5  2013     1     2       NA           1540        NA       NA           1747
    ##  6  2013     1     2       NA           1620        NA       NA           1746
    ##  7  2013     1     2       NA           1355        NA       NA           1459
    ##  8  2013     1     2       NA           1420        NA       NA           1644
    ##  9  2013     1     2       NA           1321        NA       NA           1536
    ## 10  2013     1     2       NA           1545        NA       NA           1910
    ## # … with 336,766 more rows, and 11 more variables: arr_delay <dbl>,
    ## #   carrier <chr>, flight <int>, tailnum <chr>, origin <chr>, dest <chr>,
    ## #   air_time <dbl>, distance <dbl>, hour <dbl>, minute <dbl>, time_hour <dttm>

``` r
flights %>% 
  arrange(desc(is.na(dep_time)))
```

    ## # A tibble: 336,776 × 19
    ##     year month   day dep_time sched_dep_time dep_delay arr_time sched_arr_time
    ##    <int> <int> <int>    <int>          <int>     <dbl>    <int>          <int>
    ##  1  2013     1     1       NA           1630        NA       NA           1815
    ##  2  2013     1     1       NA           1935        NA       NA           2240
    ##  3  2013     1     1       NA           1500        NA       NA           1825
    ##  4  2013     1     1       NA            600        NA       NA            901
    ##  5  2013     1     2       NA           1540        NA       NA           1747
    ##  6  2013     1     2       NA           1620        NA       NA           1746
    ##  7  2013     1     2       NA           1355        NA       NA           1459
    ##  8  2013     1     2       NA           1420        NA       NA           1644
    ##  9  2013     1     2       NA           1321        NA       NA           1536
    ## 10  2013     1     2       NA           1545        NA       NA           1910
    ## # … with 336,766 more rows, and 11 more variables: arr_delay <dbl>,
    ## #   carrier <chr>, flight <int>, tailnum <chr>, origin <chr>, dest <chr>,
    ## #   air_time <dbl>, distance <dbl>, hour <dbl>, minute <dbl>, time_hour <dttm>

> Sam’s Solution:

``` r
flights %>% 
  arrange(!is.na(air_time))
```

    ## # A tibble: 336,776 × 19
    ##     year month   day dep_time sched_dep_time dep_delay arr_time sched_arr_time
    ##    <int> <int> <int>    <int>          <int>     <dbl>    <int>          <int>
    ##  1  2013     1     1     1525           1530        -5     1934           1805
    ##  2  2013     1     1     1528           1459        29     2002           1647
    ##  3  2013     1     1     1740           1745        -5     2158           2020
    ##  4  2013     1     1     1807           1738        29     2251           2103
    ##  5  2013     1     1     1939           1840        59       29           2151
    ##  6  2013     1     1     1952           1930        22     2358           2207
    ##  7  2013     1     1     2016           1930        46       NA           2220
    ##  8  2013     1     1       NA           1630        NA       NA           1815
    ##  9  2013     1     1       NA           1935        NA       NA           2240
    ## 10  2013     1     1       NA           1500        NA       NA           1825
    ## # … with 336,766 more rows, and 11 more variables: arr_delay <dbl>,
    ## #   carrier <chr>, flight <int>, tailnum <chr>, origin <chr>, dest <chr>,
    ## #   air_time <dbl>, distance <dbl>, hour <dbl>, minute <dbl>, time_hour <dttm>
…
3.  What does the `any_of()` function do? Why might it be helpful in
    conjunction with this vector?

``` r
vars <- c("year", "month", "day", "dep_delay", "arr_delay")
```

> Live Solution:

``` r
flights %>% 
  select(any_of(vars))
```

    ## # A tibble: 336,776 × 5
    ##     year month   day dep_delay arr_delay
    ##    <int> <int> <int>     <dbl>     <dbl>
    ##  1  2013     1     1         2        11
    ##  2  2013     1     1         4        20
    ##  3  2013     1     1         2        33
    ##  4  2013     1     1        -1       -18
    ##  5  2013     1     1        -6       -25
    ##  6  2013     1     1        -4        12
    ##  7  2013     1     1        -5        19
    ##  8  2013     1     1        -3       -14
    ##  9  2013     1     1        -3        -8
    ## 10  2013     1     1        -2         8
    ## # … with 336,766 more rows

``` r
flights %>% 
  select(year, month, day, dep_delay, arr_delay)
```

    ## # A tibble: 336,776 × 5
    ##     year month   day dep_delay arr_delay
    ##    <int> <int> <int>     <dbl>     <dbl>
    ##  1  2013     1     1         2        11
    ##  2  2013     1     1         4        20
    ##  3  2013     1     1         2        33
    ##  4  2013     1     1        -1       -18
    ##  5  2013     1     1        -6       -25
    ##  6  2013     1     1        -4        12
    ##  7  2013     1     1        -5        19
    ##  8  2013     1     1        -3       -14
    ##  9  2013     1     1        -3        -8
    ## 10  2013     1     1        -2         8
    ## # … with 336,766 more rows

``` r
flights %>% 
  select(vars)
```

    ## # A tibble: 336,776 × 5
    ##     year month   day dep_delay arr_delay
    ##    <int> <int> <int>     <dbl>     <dbl>
    ##  1  2013     1     1         2        11
    ##  2  2013     1     1         4        20
    ##  3  2013     1     1         2        33
    ##  4  2013     1     1        -1       -18
    ##  5  2013     1     1        -6       -25
    ##  6  2013     1     1        -4        12
    ##  7  2013     1     1        -5        19
    ##  8  2013     1     1        -3       -14
    ##  9  2013     1     1        -3        -8
    ## 10  2013     1     1        -2         8
    ## # … with 336,766 more rows

``` r
vars <- c("year", "month", "day", "dep_delay", "arr_delay")
```

> Sam’s Solution:

``` r
# ?any_of

flights %>% 
  select(any_of(vars))
```

    ## # A tibble: 336,776 × 5
    ##     year month   day dep_delay arr_delay
    ##    <int> <int> <int>     <dbl>     <dbl>
    ##  1  2013     1     1         2        11
    ##  2  2013     1     1         4        20
    ##  3  2013     1     1         2        33
    ##  4  2013     1     1        -1       -18
    ##  5  2013     1     1        -6       -25
    ##  6  2013     1     1        -4        12
    ##  7  2013     1     1        -5        19
    ##  8  2013     1     1        -3       -14
    ##  9  2013     1     1        -3        -8
    ## 10  2013     1     1        -2         8
    ## # … with 336,766 more rows
…
``` r
select(flights, contains("TIME"))
```

> Sam’s Solution:

``` r
# ?contains
select(flights, contains("TIME"))
```

    ## # A tibble: 336,776 × 6
    ##    dep_time sched_dep_time arr_time sched_arr_time air_time time_hour          
    ##       <int>          <int>    <int>          <int>    <dbl> <dttm>             
    ##  1      517            515      830            819      227 2013-01-01 05:00:00
    ##  2      533            529      850            830      227 2013-01-01 05:00:00
    ##  3      542            540      923            850      160 2013-01-01 05:00:00
    ##  4      544            545     1004           1022      183 2013-01-01 05:00:00
    ##  5      554            600      812            837      116 2013-01-01 06:00:00
    ##  6      554            558      740            728      150 2013-01-01 05:00:00
    ##  7      555            600      913            854      158 2013-01-01 06:00:00
    ##  8      557            600      709            723       53 2013-01-01 06:00:00
    ##  9      557            600      838            846      140 2013-01-01 06:00:00
    ## 10      558            600      753            745      138 2013-01-01 06:00:00
    ## # … with 336,766 more rows
…
  hours * 60 + minutes
}

flights <- flights %>% 
  mutate(across(contains("dep_time"), convert_time))

flights %>% 
  select(contains("dep_time"))
```

    ## # A tibble: 336,776 × 2
    ##    dep_time sched_dep_time
    ##       <dbl>          <dbl>
    ##  1      197            195
    ##  2      213            209
    ##  3      222            220
    ##  4      224            225
    ##  5      234            240
    ##  6      234            238
    ##  7      235            240
    ##  8      237            240
    ##  9      237            240
    ## 10      238            240
    ## # … with 336,766 more rows

3.  Compare `dep_time`, `sched_dep_time`, and `dep_delay`. How would you
    expect those three numbers to be related?

> Live Solution:

``` r
flights %>% 
  select(dep_time, sched_dep_time, dep_delay) %>% 
  mutate(dep_delay2 = dep_time - sched_dep_time)
```

    ## # A tibble: 336,776 × 4
    ##    dep_time sched_dep_time dep_delay dep_delay2
    ##       <dbl>          <dbl>     <dbl>      <dbl>
    ##  1      197            195         2          2
    ##  2      213            209         4          4
    ##  3      222            220         2          2
    ##  4      224            225        -1         -1
    ##  5      234            240        -6         -6
    ##  6      234            238        -4         -4
    ##  7      235            240        -5         -5
    ##  8      237            240        -3         -3
    ##  9      237            240        -3         -3
    ## 10      238            240        -2         -2
    ## # … with 336,766 more rows
…
> Live Solution:

``` r
not_cancelled <- flights %>% 
  filter(!is.na(dep_delay), !is.na(arr_delay))

not_cancelled %>% 
  count(dest)
```

    ## # A tibble: 104 × 2
    ##    dest      n
    ##    <chr> <int>
    ##  1 ABQ     254
    ##  2 ACK     264
    ##  3 ALB     418
    ##  4 ANC       8
    ##  5 ATL   16837
    ##  6 AUS    2411
    ##  7 AVL     261
    ##  8 BDL     412
    ##  9 BGR     358
    ## 10 BHM     269
    ## # … with 94 more rows

``` r
not_cancelled %>% 
  group_by(dest) %>% 
  summarise(n = n())
```

    ## # A tibble: 104 × 2
    ##    dest      n
    ##    <chr> <int>
    ##  1 ABQ     254
    ##  2 ACK     264
    ##  3 ALB     418
    ##  4 ANC       8
    ##  5 ATL   16837
    ##  6 AUS    2411
    ##  7 AVL     261
    ##  8 BDL     412
    ##  9 BGR     358
    ## 10 BHM     269
    ## # … with 94 more rows

``` r
not_cancelled %>% 
  count(tailnum, wt = distance)
```

    ## # A tibble: 4,037 × 2
    ##    tailnum      n
    ##    <chr>    <dbl>
    ##  1 D942DN    3418
    ##  2 N0EGMQ  239143
    ##  3 N10156  109664
    ##  4 N102UW   25722
    ##  5 N103US   24619
    ##  6 N104UW   24616
    ##  7 N10575  139903
    ##  8 N105UW   23618
    ##  9 N107US   21677
    ## 10 N108UW   32070
    ## # … with 4,027 more rows

``` r
not_cancelled %>% 
  group_by(tailnum) %>% 
  summarize(total_distance = sum(distance, na.rm = TRUE))
```

    ## # A tibble: 4,037 × 2
    ##    tailnum total_distance
    ##    <chr>            <dbl>
    ##  1 D942DN            3418
    ##  2 N0EGMQ          239143
    ##  3 N10156          109664
    ##  4 N102UW           25722
    ##  5 N103US           24619
    ##  6 N104UW           24616
    ##  7 N10575          139903
    ##  8 N105UW           23618
    ##  9 N107US           21677
    ## 10 N108UW           32070
    ## # … with 4,027 more rows
…
6.  What does the `sort` argument to `count()` do. When might you use
    it?

> Sam’s Solution:

``` r
flights %>% 
  count(dest, sort = T)
```

    ## # A tibble: 105 × 2
    ##    dest      n
    ##    <chr> <int>
    ##  1 ORD   17283
    ##  2 ATL   17215
    ##  3 LAX   16174
    ##  4 BOS   15508
    ##  5 MCO   14082
    ##  6 CLT   14064
    ##  7 SFO   13331
    ##  8 FLL   12055
    ##  9 MIA   11728
    ## 10 DCA    9705
    ## # … with 95 more rows
…
> Live Solution:

``` r
flights %>% 
  group_by(dest) %>% 
  filter(arr_delay > 0) %>% 
  mutate(total_min_delay = sum(arr_delay),
         prop_delay = arr_delay / total_min_delay
  ) %>% 
  arrange(desc(prop_delay))
```

    ## # A tibble: 133,004 × 21
    ## # Groups:   dest [103]
    ##     year month   day dep_time sched_dep_time dep_delay arr_time sched_arr_time
    ##    <int> <int> <int>    <dbl>          <dbl>     <dbl>    <int>          <int>
    ##  1  2013     8    17      660            625        75     2042           2003
    ##  2  2013     3    30      430            348       122     1346           1205
    ##  3  2013     3    16      406            415        -9     1412           1355
    ##  4  2013    11    22      733            705        68     2224           2131
    ##  5  2013    11     1      732            705        67     2221           2131
    ##  6  2013     3    16      325            310        15     1154           1111
    ##  7  2013    12    28      424            339       165     1353           1119
    ##  8  2013    12    25      453            335       198     1437           1142
    ##  9  2013    12    21      356            310        46     1149           1117
    ## 10  2013     3     8      875            740       255      109           2121
    ## # … with 132,994 more rows, and 13 more variables: arr_delay <dbl>,
    ## #   carrier <chr>, flight <int>, tailnum <chr>, origin <chr>, dest <chr>,
    ## #   air_time <dbl>, distance <dbl>, hour <dbl>, minute <dbl>, time_hour <dttm>,
    ## #   total_min_delay <dbl>, prop_delay <dbl>

> Sam’s Solution:

``` r
flights %>% 
  filter(arr_delay > 0) %>% 
  group_by(dest) %>% 
  mutate(total_arr_delay = sum(arr_delay),
         prop_tot_delay = arr_delay / total_arr_delay) %>%
  arrange(desc(prop_tot_delay))
```

    ## # A tibble: 133,004 × 21
    ## # Groups:   dest [103]
    ##     year month   day dep_time sched_dep_time dep_delay arr_time sched_arr_time
    ##    <int> <int> <int>    <dbl>          <dbl>     <dbl>    <int>          <int>
    ##  1  2013     8    17      660            625        75     2042           2003
    ##  2  2013     3    30      430            348       122     1346           1205
    ##  3  2013     3    16      406            415        -9     1412           1355
    ##  4  2013    11    22      733            705        68     2224           2131
    ##  5  2013    11     1      732            705        67     2221           2131
    ##  6  2013     3    16      325            310        15     1154           1111
    ##  7  2013    12    28      424            339       165     1353           1119
    ##  8  2013    12    25      453            335       198     1437           1142
    ##  9  2013    12    21      356            310        46     1149           1117
    ## 10  2013     3     8      875            740       255      109           2121
    ## # … with 132,994 more rows, and 13 more variables: arr_delay <dbl>,
    ## #   carrier <chr>, flight <int>, tailnum <chr>, origin <chr>, dest <chr>,
    ## #   air_time <dbl>, distance <dbl>, hour <dbl>, minute <dbl>, time_hour <dttm>,
    ## #   total_arr_delay <dbl>, prop_tot_delay <dbl>

6.  Look at each destination. Can you find flights that are suspiciously
    fast? (i.e. flights that represent a potential data entry error).
    Compute the air time of a flight relative to the shortest flight to
    that destination. Which flights were most delayed in the air?

> Sam’s Solution:

``` r
flights %>% 
  arrange(air_time)
```

    ## # A tibble: 336,776 × 19
    ##     year month   day dep_time sched_dep_time dep_delay arr_time sched_arr_time
    ##    <int> <int> <int>    <dbl>          <dbl>     <dbl>    <int>          <int>
    ##  1  2013     1    16      515            515        40     1442           1411
    ##  2  2013     4    13      217            207        10      622            628
    ##  3  2013    12     6      362            331        31     1021            954
    ##  4  2013     2     3      793            809        24     2247           2224
    ##  5  2013     2     5      503            515       -12     1342           1411
    ##  6  2013     2    12      803            810        -7     2211           2225
    ##  7  2013     3     2      570            540       -10     1547           1608
    ##  8  2013     3     8      746            735        51     2131           2056
    ##  9  2013     3    18      576            489        87     1533           1426
    ## 10  2013     3    19      826            785        41     2305           2246
    ## # … with 336,766 more rows, and 11 more variables: arr_delay <dbl>,
    ## #   carrier <chr>, flight <int>, tailnum <chr>, origin <chr>, dest <chr>,
    ## #   air_time <dbl>, distance <dbl>, hour <dbl>, minute <dbl>, time_hour <dttm>
…
8.  For each plane, count the number of flights before the first delay
    of greater than 1 hour.

> Sam’s Solution:

``` r
flights %>% 
  group_by(tailnum) %>% 
  mutate(cumulative_hr_delays = cumsum(dep_delay > 60)) %>% 
  filter(cumulative_hr_delays < 1) %>% 
  count(sort = T)
```

    ## # A tibble: 3,784 × 2
    ## # Groups:   tailnum [3,784]
    ##    tailnum     n
    ##    <chr>   <int>
    ##  1 N952UW    215
    ##  2 N315NB    161
    ##  3 N705TW    160
    ##  4 N961UW    139
    ##  5 N713TW    128
    ##  6 N765US    122
    ##  7 N721TW    120
    ##  8 N5FAAA    117
    ##  9 N945UW    104
    ## 10 N19130    101
    ## # … with 3,774 more rows
…
``` r
# dist of color within cut 
diamonds %>% 
  count(color, cut) %>% 
  group_by(cut) %>% 
  arrange(cut, color) %>% 
  mutate(perc = n / sum(n))
```

    ## # A tibble: 35 × 4
    ## # Groups:   cut [5]
    ##    color cut       n   perc
    ##    <ord> <ord> <int>  <dbl>
    ##  1 D     Fair    163 0.101 
    ##  2 E     Fair    224 0.139 
    ##  3 F     Fair    312 0.194 
    ##  4 G     Fair    314 0.195 
    ##  5 H     Fair    303 0.188 
    ##  6 I     Fair    175 0.109 
    ##  7 J     Fair    119 0.0739
    ##  8 D     Good    662 0.135 
    ##  9 E     Good    933 0.190 
    ## 10 F     Good    909 0.185 
    ## # … with 25 more rows
…
