…
# add residuals 
by_country <- by_country %>% 
  mutate(
    resids_quad = map2(data, model_quad, add_residuals)
  )
by_country
```

    ## # A tibble: 142 × 7
    ## # Groups:   country, continent [142]
    ##    country    continent data         model resids      model_quad resids_quad   
    ##    <fct>      <fct>     <list>       <lis> <list>      <list>     <list>        
    ##  1 Afghanist… Asia      <tibble [12… <lm>  <tibble [1… <lm>       <tibble [12 ×…
    ##  2 Albania    Europe    <tibble [12… <lm>  <tibble [1… <lm>       <tibble [12 ×…
    ##  3 Algeria    Africa    <tibble [12… <lm>  <tibble [1… <lm>       <tibble [12 ×…
    ##  4 Angola     Africa    <tibble [12… <lm>  <tibble [1… <lm>       <tibble [12 ×…
    ##  5 Argentina  Americas  <tibble [12… <lm>  <tibble [1… <lm>       <tibble [12 ×…
    ##  6 Australia  Oceania   <tibble [12… <lm>  <tibble [1… <lm>       <tibble [12 ×…
    ##  7 Austria    Europe    <tibble [12… <lm>  <tibble [1… <lm>       <tibble [12 ×…
    ##  8 Bahrain    Asia      <tibble [12… <lm>  <tibble [1… <lm>       <tibble [12 ×…
    ##  9 Bangladesh Asia      <tibble [12… <lm>  <tibble [1… <lm>       <tibble [12 ×…
    ## 10 Belgium    Europe    <tibble [12… <lm>  <tibble [1… <lm>       <tibble [12 ×…
    ## # … with 132 more rows
…
data\_grid :

``` r
sim3 %>% 
  data_grid(x1, x2)
```

    ## # A tibble: 40 × 2
    ##       x1 x2   
    ##    <int> <fct>
    ##  1     1 a    
    ##  2     1 b    
    ##  3     1 c    
    ##  4     1 d    
    ##  5     2 a    
    ##  6     2 b    
    ##  7     2 c    
    ##  8     2 d    
    ##  9     3 a    
    ## 10     3 b    
    ## # … with 30 more rows
